0100010000000000Rosana Krug                                       Avenida So Borja - at 460 - lado par    276  ao lado Ótica MelloRio Branco                    So Leopoldo/RS                RS93040386 Brasil                        1F                                    31825591091                 00000000000000005135884171                                                                                                    rkrug@feevale.br                                  
030002300420161011101002210000000000                  31825591091   000000015919000000001989000000001590000000017400                                                                                                    
040003100221015651              00001000000000019900000000001989000000017910
