<?xml version="1.0" encoding="utf-8"?>
<!-- Generator: Adobe Illustrator 17.0.0, SVG Export Plug-In . SVG Version: 6.00 Build 0)  -->
<!DOCTYPE svg PUBLIC "-//W3C//DTD SVG 1.1//EN" "http://www.w3.org/Graphics/SVG/1.1/DTD/svg11.dtd">
<svg version="1.1" id="Layer_1" xmlns="http://www.w3.org/2000/svg" xmlns:xlink="http://www.w3.org/1999/xlink" x="0px" y="0px"
	 width="50px" height="50px" viewBox="0 0 50 50" enable-background="new 0 0 50 50" xml:space="preserve">
<g>
	<path fill="none" stroke="#747777" stroke-width="2.0001" stroke-miterlimit="2.6131" d="M7.129,7.142h36.355
		c0.765,0,1.392,0.626,1.392,1.392v34.528c0,0.765-0.626,1.392-1.392,1.392H7.129c-0.765,0-1.392-0.626-1.392-1.392V8.534
		C5.737,7.768,6.364,7.142,7.129,7.142L7.129,7.142z"/>
	<path fill="#747777" d="M13.136,36.451h-1.801v-1.283c0-0.373-0.02-0.606-0.058-0.699c-0.038-0.092-0.123-0.138-0.254-0.138
		c-0.149,0-0.242,0.056-0.283,0.168c-0.039,0.113-0.06,0.356-0.06,0.729v3.422c0,0.359,0.02,0.592,0.06,0.701
		c0.041,0.11,0.13,0.165,0.27,0.165c0.134,0,0.222-0.054,0.263-0.165c0.041-0.109,0.063-0.365,0.063-0.769v-0.923h1.801v0.286
		c0,0.761-0.051,1.302-0.152,1.62c-0.101,0.319-0.326,0.598-0.672,0.837c-0.346,0.239-0.774,0.36-1.281,0.36
		c-0.529,0-0.964-0.103-1.306-0.306c-0.342-0.203-0.57-0.485-0.681-0.844c-0.111-0.36-0.167-0.901-0.167-1.623v-2.152
		c0-0.531,0.018-0.929,0.051-1.195c0.035-0.266,0.136-0.522,0.307-0.767c0.169-0.245,0.404-0.44,0.705-0.581
		c0.301-0.14,0.647-0.211,1.037-0.211c0.532,0,0.97,0.11,1.315,0.328c0.345,0.219,0.571,0.491,0.681,0.817
		c0.108,0.326,0.162,0.834,0.162,1.522V36.451L13.136,36.451z M17.898,37.553c0,0.741-0.016,1.265-0.048,1.572
		c-0.034,0.309-0.136,0.59-0.308,0.845c-0.172,0.255-0.406,0.451-0.7,0.587c-0.294,0.137-0.637,0.205-1.027,0.205
		c-0.371,0-0.704-0.065-0.999-0.194c-0.297-0.129-0.533-0.322-0.713-0.579c-0.18-0.258-0.286-0.539-0.321-0.842
		c-0.033-0.305-0.051-0.836-0.051-1.594v-1.26c0-0.741,0.016-1.265,0.05-1.574c0.032-0.308,0.134-0.589,0.308-0.844
		c0.172-0.255,0.404-0.45,0.7-0.587c0.294-0.137,0.635-0.205,1.027-0.205c0.371,0,0.704,0.065,0.999,0.194
		c0.295,0.129,0.533,0.322,0.713,0.579c0.18,0.258,0.286,0.539,0.32,0.842c0.035,0.305,0.051,0.834,0.051,1.594V37.553
		L17.898,37.553z M16.097,35.132c0-0.343-0.018-0.562-0.054-0.659c-0.035-0.095-0.108-0.143-0.219-0.143
		c-0.095,0-0.167,0.039-0.216,0.116c-0.051,0.076-0.076,0.305-0.076,0.685v3.44c0,0.429,0.018,0.693,0.05,0.792
		c0.032,0.101,0.11,0.151,0.229,0.151c0.123,0,0.2-0.057,0.235-0.172c0.033-0.117,0.051-0.39,0.051-0.825V35.132L16.097,35.132z
		 M24.128,33.239v7.368h-1.574v-4.974l-0.63,4.974h-1.117l-0.663-4.861v4.861H18.57v-7.368h2.333
		c0.069,0.443,0.14,0.965,0.218,1.566l0.248,1.875l0.411-3.441H24.128L24.128,33.239z M24.851,33.239h1.814
		c0.491,0,0.869,0.04,1.132,0.123c0.264,0.082,0.463,0.2,0.594,0.354c0.133,0.155,0.223,0.343,0.27,0.562
		c0.047,0.221,0.07,0.561,0.07,1.022v0.642c0,0.471-0.045,0.814-0.136,1.028c-0.092,0.216-0.26,0.381-0.504,0.497
		c-0.244,0.115-0.562,0.173-0.955,0.173h-0.483v2.967h-1.802V33.239L24.851,33.239z M26.654,34.499v1.875
		c0.051,0.003,0.095,0.005,0.131,0.005c0.166,0,0.28-0.043,0.345-0.129c0.064-0.087,0.096-0.267,0.096-0.539v-0.606
		c0-0.252-0.037-0.416-0.111-0.491C27.041,34.537,26.887,34.499,26.654,34.499L26.654,34.499z M29.251,33.239h1.275
		c0.85,0,1.426,0.034,1.726,0.104c0.301,0.07,0.546,0.249,0.736,0.534c0.19,0.287,0.285,0.744,0.285,1.373
		c0,0.573-0.067,0.958-0.202,1.156c-0.133,0.197-0.397,0.315-0.792,0.354c0.356,0.095,0.597,0.221,0.72,0.379
		c0.121,0.157,0.199,0.301,0.228,0.433c0.031,0.132,0.045,0.496,0.045,1.091v1.943h-1.673v-2.448c0-0.395-0.031-0.639-0.089-0.733
		c-0.058-0.093-0.212-0.141-0.459-0.141v3.323h-1.802V33.239L29.251,33.239z M31.053,34.499v1.639c0.202,0,0.343-0.03,0.425-0.089
		c0.082-0.059,0.123-0.252,0.123-0.576v-0.404c0-0.235-0.039-0.387-0.118-0.46C31.404,34.536,31.26,34.499,31.053,34.499
		L31.053,34.499z M37.081,33.239l1.031,7.368h-1.845l-0.089-1.325h-0.647l-0.107,1.325h-1.865l0.916-7.368H37.081L37.081,33.239z
		 M36.127,37.977c-0.092-0.834-0.183-1.866-0.275-3.092c-0.183,1.409-0.297,2.439-0.342,3.092H36.127L36.127,37.977z M42.237,35.468
		h-1.672v-0.545c0-0.255-0.022-0.418-0.064-0.488c-0.043-0.07-0.114-0.104-0.215-0.104c-0.108,0-0.19,0.047-0.245,0.141
		c-0.056,0.093-0.083,0.236-0.083,0.427c0,0.245,0.031,0.432,0.093,0.556c0.06,0.124,0.231,0.273,0.51,0.451
		c0.802,0.506,1.306,0.921,1.515,1.246c0.209,0.325,0.313,0.848,0.313,1.571c0,0.525-0.058,0.912-0.174,1.16
		c-0.115,0.249-0.339,0.458-0.669,0.626c-0.331,0.168-0.716,0.253-1.155,0.253c-0.482,0-0.894-0.098-1.234-0.292
		c-0.342-0.194-0.565-0.441-0.67-0.741c-0.105-0.301-0.158-0.727-0.158-1.28v-0.482h1.672v0.896c0,0.277,0.023,0.454,0.07,0.533
		c0.048,0.078,0.131,0.118,0.251,0.118c0.12,0,0.209-0.05,0.267-0.151c0.058-0.099,0.088-0.249,0.088-0.446
		c0-0.433-0.055-0.718-0.167-0.851c-0.114-0.134-0.396-0.356-0.843-0.668c-0.448-0.317-0.745-0.545-0.891-0.688
		c-0.145-0.143-0.266-0.34-0.361-0.592c-0.096-0.252-0.143-0.573-0.143-0.965c0-0.564,0.067-0.977,0.203-1.238
		c0.134-0.261,0.353-0.464,0.656-0.612c0.302-0.146,0.667-0.221,1.096-0.221c0.469,0,0.868,0.081,1.196,0.241
		c0.33,0.162,0.548,0.364,0.656,0.609c0.107,0.244,0.159,0.659,0.159,1.244V35.468L42.237,35.468z"/>
	<path fill-rule="evenodd" clip-rule="evenodd" fill="#747777" d="M9.335,42.116c0,0,2.885-1.258,9.544-1.036
		c6.658,0.222,23.822,0,23.822,0s-0.222,1.258-5.549,1.184C31.825,42.19,9.335,42.116,9.335,42.116L9.335,42.116z"/>
	<path fill-rule="evenodd" clip-rule="evenodd" fill="#747777" d="M7.707,18.737c0,0,10.875,0,14.87,0
		c3.995,0,6.584,1.258,6.584,1.258s-13.021-0.074-16.424-0.074C9.335,19.921,7.707,18.737,7.707,18.737L7.707,18.737z"/>
	<path fill="#747777" d="M8.837,21.403h2.907c0.916,0,1.613,0.071,2.085,0.215c0.472,0.142,0.855,0.432,1.145,0.867
		c0.291,0.437,0.435,1.138,0.435,2.106c0,0.656-0.102,1.112-0.307,1.37c-0.206,0.26-0.609,0.458-1.214,0.595
		c0.673,0.153,1.129,0.406,1.37,0.758c0.239,0.354,0.359,0.895,0.359,1.622v1.039c0,0.756-0.085,1.315-0.26,1.681
		c-0.172,0.364-0.449,0.612-0.826,0.746c-0.378,0.135-1.152,0.201-2.324,0.201h-3.37V21.403L8.837,21.403z M11.751,23.318v2.491
		c0.123-0.005,0.22-0.007,0.29-0.007c0.286,0,0.468-0.071,0.546-0.21c0.078-0.142,0.118-0.543,0.118-1.207
		c0-0.352-0.033-0.597-0.097-0.737c-0.066-0.142-0.149-0.232-0.253-0.267C12.252,23.344,12.049,23.323,11.751,23.318L11.751,23.318z
		 M11.751,27.552v3.134c0.409-0.012,0.671-0.078,0.784-0.194c0.113-0.113,0.17-0.399,0.17-0.85v-1.044
		c0-0.479-0.052-0.77-0.153-0.871C12.45,27.626,12.183,27.567,11.751,27.552L11.751,27.552z M21.691,21.403l1.667,11.201h-2.983
		l-0.144-2.014h-1.046l-0.172,2.014h-3.016l1.481-11.201H21.691L21.691,21.403z M20.149,28.606
		c-0.149-1.268-0.295-2.836-0.444-4.699c-0.295,2.142-0.479,3.707-0.553,4.699H20.149L20.149,28.606z M30.36,21.403v11.201h-2.553
		l-1.516-5.091v5.091h-2.435V21.403h2.435l1.634,5.044v-5.044H30.36L30.36,21.403z M31.529,21.403h2.062
		c1.374,0,2.305,0.052,2.791,0.158c0.487,0.106,0.883,0.378,1.19,0.812c0.307,0.437,0.461,1.131,0.461,2.087
		c0,0.871-0.109,1.457-0.326,1.757c-0.215,0.3-0.642,0.479-1.28,0.538c0.576,0.144,0.966,0.335,1.164,0.576
		c0.196,0.238,0.321,0.458,0.368,0.659c0.05,0.201,0.073,0.753,0.073,1.658v2.954h-2.704v-3.722c0-0.6-0.05-0.971-0.144-1.115
		c-0.094-0.142-0.342-0.215-0.741-0.215v5.051h-2.914V21.403L31.529,21.403z M34.443,23.318v2.491c0.326,0,0.555-0.045,0.687-0.135
		c0.132-0.09,0.198-0.383,0.198-0.876v-0.614c0-0.357-0.064-0.588-0.191-0.699C35.009,23.375,34.778,23.318,34.443,23.318
		L34.443,23.318z M42.073,21.403v11.201h-2.914V21.403H42.073L42.073,21.403z"/>
	<path fill-rule="evenodd" clip-rule="evenodd" fill="#747777" d="M16.673,17.509c2.359-3.773,4.728-5.73,7.233-5.69
		c4.677,0.074,6.853,3.952,8.294,8.487c3.568-0.371,7.137-0.29,10.705-0.145c-3.52-0.531-7.056-0.998-10.705-1.013
		c-1.047-4.607-3.107-8.271-7.667-8.342C21.621,10.761,18.552,11.85,16.673,17.509L16.673,17.509z"/>
	<path fill-rule="evenodd" clip-rule="evenodd" fill="#747777" d="M19.76,18.57c0.98-2.114,2.572-4.139,4.581-6.124
		c-0.741,0-1.289,0-2.03,0C20.721,14.873,19.806,16.915,19.76,18.57L19.76,18.57z"/>
	<path fill-rule="evenodd" clip-rule="evenodd" fill="#747777" d="M24.775,10.083c0.563,0.129,1.125,0.257,1.688,0.386
		c3.501-0.554,6.773,1.854,8.873,7.088c-1.304-3.639-1.862-7.511-6.365-8.149C27.45,9.193,25.666,9.416,24.775,10.083L24.775,10.083
		z"/>
	<polygon fill-rule="evenodd" clip-rule="evenodd" fill="#FFFFFF" points="18.942,27.665 20.702,27.665 21.616,25.995 
		20.741,24.344 18.989,24.334 18.942,27.665 	"/>
	<polygon fill-rule="evenodd" clip-rule="evenodd" fill="#747777" points="18.002,26.039 18.991,24.31 19.899,26.014 18.938,27.669 
		18.002,26.039 	"/>
	<polygon fill-rule="evenodd" clip-rule="evenodd" fill="#FFFFFF" points="20.23,30.038 21.991,30.038 22.905,28.368 22.03,26.717 
		20.278,26.708 20.23,30.038 	"/>
	<polygon fill-rule="evenodd" clip-rule="evenodd" fill="#747777" points="19.291,28.413 20.28,26.683 21.188,28.387 20.227,30.042 
		19.291,28.413 	"/>
	<polygon fill-rule="evenodd" clip-rule="evenodd" fill="#FFFFFF" points="17.55,30.038 19.311,30.038 20.225,28.368 19.35,26.717 
		17.598,26.708 17.55,30.038 	"/>
	<polygon fill-rule="evenodd" clip-rule="evenodd" fill="#747777" points="16.611,28.413 17.6,26.683 18.508,28.387 17.547,30.042 
		16.611,28.413 	"/>
</g>
</svg>
