<?xml version="1.0" encoding="utf-8"?>
<!-- Generator: Adobe Illustrator 17.0.0, SVG Export Plug-In . SVG Version: 6.00 Build 0)  -->
<!DOCTYPE svg PUBLIC "-//W3C//DTD SVG 1.1//EN" "http://www.w3.org/Graphics/SVG/1.1/DTD/svg11.dtd">
<svg version="1.1" id="Layer_1" xmlns="http://www.w3.org/2000/svg" xmlns:xlink="http://www.w3.org/1999/xlink" x="0px" y="0px"
	 width="50px" height="50px" viewBox="0 0 50 50" enable-background="new 0 0 50 50" xml:space="preserve">
<g>
	<path fill="#737777" d="M40.274,12.878H10.912c-2.543,0-4.612,2.069-4.612,4.612v16.587c0,2.543,2.069,4.613,4.612,4.613h29.362
		c2.543,0,4.612-2.07,4.612-4.613V17.49C44.887,14.947,42.818,12.878,40.274,12.878L40.274,12.878z M42.335,34.078
		c0,1.136-0.924,2.061-2.061,2.061H10.912c-1.136,0-2.06-0.924-2.06-2.061V22.962h33.483V34.078z M42.335,19.321L8.852,19.323V17.49
		c0-1.136,0.924-2.061,2.061-2.061h29.362c1.136,0,2.061,0.924,2.061,2.061V19.321z M42.335,19.321"/>
	<path fill="#737777" d="M12.019,33.771h6.987c0.25,0,0.453-0.203,0.453-0.453V31.94c0-0.25-0.203-0.453-0.453-0.453h-6.987
		c-0.25,0-0.453,0.203-0.453,0.453v1.378C11.566,33.568,11.769,33.771,12.019,33.771L12.019,33.771z M12.019,33.771"/>
	<path fill="#737777" d="M34.67,33.771h2.078c1.199,0,2.172-0.972,2.172-2.172v-2.078c0-1.199-0.972-2.172-2.172-2.172H34.67
		c-1.199,0-2.172,0.972-2.172,2.172v2.078C32.499,32.799,33.471,33.771,34.67,33.771L34.67,33.771z M34.67,33.771"/>
</g>
</svg>
