<?xml version="1.0" encoding="utf-8"?>
<!-- Generator: Adobe Illustrator 17.0.0, SVG Export Plug-In . SVG Version: 6.00 Build 0)  -->
<!DOCTYPE svg PUBLIC "-//W3C//DTD SVG 1.1//EN" "http://www.w3.org/Graphics/SVG/1.1/DTD/svg11.dtd">
<svg version="1.1" id="Layer_1" xmlns="http://www.w3.org/2000/svg" xmlns:xlink="http://www.w3.org/1999/xlink" x="0px" y="0px"
	 width="50px" height="50px" viewBox="0 0 50 50" enable-background="new 0 0 50 50" xml:space="preserve">
<g>
	<g>
		<path fill="#737777" d="M44.657,11.868c1.213,0,2.2,0.987,2.2,2.2v22.584c0,1.213-0.987,2.2-2.2,2.2H5.1
			c-1.213,0-2.2-0.987-2.2-2.2V14.068c0-1.213,0.987-2.2,2.2-2.2H44.657 M44.657,11.43H5.1c-1.457,0-2.638,1.181-2.638,2.638v22.584
			c0,1.457,1.181,2.638,2.638,2.638h39.557c1.457,0,2.638-1.181,2.638-2.638V14.068C47.295,12.611,46.114,11.43,44.657,11.43
			L44.657,11.43z"/>
	</g>
	<g>
		<path fill="#737777" d="M26.862,30.178c4.181,0.02,7.998-3.409,7.998-7.582c0-4.562-3.817-7.716-7.998-7.714h-3.599
			c-4.231-0.001-7.714,3.153-7.714,7.714c0,4.173,3.483,7.602,7.714,7.582H26.862z"/>
		<path fill="#FFFFFF" d="M24.868,26.659v-8.285c1.665,0.639,2.848,2.251,2.851,4.142C27.716,24.407,26.534,26.019,24.868,26.659
			 M18.843,22.516c0.004-1.89,1.184-3.501,2.848-4.142v8.283C20.027,26.017,18.846,24.406,18.843,22.516 M23.28,15.514
			c-3.866,0.001-7,3.135-7.001,7.002c0.001,3.867,3.134,7,7.001,7.001c3.868-0.001,7.001-3.134,7.002-7.001
			C30.282,18.649,27.148,15.515,23.28,15.514"/>
		<path fill="#737777" d="M7.727,35.398c0,0.623,0.445,0.695,0.841,0.695c1.747,0,2.321-1.318,2.321-2.523
			c0-1.512-0.97-2.603-2.531-2.603c-0.332,0-0.485,0.024-0.631,0.032C7.727,30.999,7.727,35.398,7.727,35.398z M6.934,31.604
			c0-0.727-0.38-0.68-0.743-0.687v-0.21c0.315,0.015,0.638,0.015,0.954,0.015c0.339,0,0.8-0.015,1.399-0.015
			c2.094,0,3.234,1.398,3.234,2.83c0,0.801-0.469,2.814-3.332,2.814c-0.412,0-0.793-0.016-1.173-0.016
			c-0.363,0-0.72,0.008-1.083,0.016v-0.21c0.485-0.049,0.72-0.065,0.743-0.615C6.934,35.527,6.934,31.604,6.934,31.604z"/>
		<path fill="#737777" d="M12.928,31.411c-0.211,0-0.396-0.194-0.396-0.405c0-0.202,0.194-0.389,0.396-0.389
			c0.21,0,0.396,0.17,0.396,0.389C13.324,31.225,13.146,31.411,12.928,31.411 M12.062,36.142h0.154c0.226,0,0.388,0,0.388-0.268
			v-2.191c0-0.356-0.121-0.405-0.421-0.566v-0.129c0.38-0.114,0.833-0.267,0.865-0.291c0.057-0.032,0.105-0.041,0.146-0.041
			c0.04,0,0.057,0.049,0.057,0.114v3.104c0,0.268,0.178,0.268,0.405,0.268h0.137v0.21c-0.275,0-0.558-0.016-0.849-0.016
			c-0.291,0-0.583,0.008-0.882,0.016C12.062,36.352,12.062,36.142,12.062,36.142z"/>
		<path fill="#737777" d="M14.561,33.731c0-0.299-0.089-0.38-0.469-0.533v-0.154c0.347-0.113,0.678-0.219,1.067-0.389
			c0.024,0,0.048,0.017,0.048,0.081v0.526c0.462-0.331,0.858-0.607,1.4-0.607c0.687,0,0.929,0.502,0.929,1.132v2.086
			c0,0.268,0.178,0.268,0.404,0.268h0.146v0.21c-0.284,0-0.567-0.016-0.857-0.016c-0.292,0-0.583,0.008-0.874,0.016v-0.21h0.146
			c0.227,0,0.388,0,0.388-0.268v-2.094c0-0.461-0.282-0.688-0.743-0.688c-0.259,0-0.671,0.21-0.939,0.388v2.393
			c0,0.268,0.179,0.268,0.405,0.268h0.145v0.21c-0.283,0-0.566-0.016-0.858-0.016c-0.29,0-0.582,0.008-0.873,0.016v-0.21h0.146
			c0.226,0,0.388,0,0.388-0.268L14.561,33.731L14.561,33.731z"/>
		<path fill="#737777" d="M20.134,33.861c0.202,0,0.225-0.105,0.225-0.202c0-0.412-0.25-0.744-0.704-0.744
			c-0.493,0-0.833,0.363-0.93,0.946H20.134z M18.702,34.12c-0.017,0.073-0.017,0.194,0,0.469c0.048,0.768,0.542,1.399,1.188,1.399
			c0.445,0,0.794-0.243,1.092-0.542l0.113,0.113c-0.372,0.493-0.833,0.914-1.496,0.914c-1.286,0-1.545-1.246-1.545-1.763
			c0-1.585,1.067-2.055,1.633-2.055c0.656,0,1.36,0.412,1.367,1.27c0,0.049,0,0.097-0.007,0.146l-0.074,0.049H18.702L18.702,34.12z"
			/>
		<path fill="#737777" d="M21.241,36.142h0.218c0.226,0,0.388,0,0.388-0.268v-2.272c0-0.25-0.299-0.299-0.421-0.364v-0.121
			c0.59-0.251,0.914-0.461,0.988-0.461c0.047,0,0.072,0.024,0.072,0.106v0.728h0.017c0.201-0.315,0.542-0.833,1.035-0.833
			c0.202,0,0.461,0.137,0.461,0.428c0,0.219-0.153,0.413-0.38,0.413c-0.252,0-0.252-0.195-0.534-0.195
			c-0.138,0-0.59,0.186-0.59,0.672v1.9c0,0.268,0.161,0.268,0.388,0.268h0.453v0.21c-0.445-0.008-0.783-0.016-1.132-0.016
			c-0.331,0-0.671,0.008-0.962,0.016L21.241,36.142L21.241,36.142z"/>
		<path fill="#737777" d="M24.355,35.228c0.105,0.533,0.428,0.987,1.019,0.987c0.476,0,0.654-0.291,0.654-0.574
			c0-0.954-1.762-0.647-1.762-1.949c0-0.453,0.364-1.036,1.253-1.036c0.258,0,0.606,0.073,0.921,0.235l0.057,0.824h-0.186
			c-0.081-0.509-0.364-0.8-0.882-0.8c-0.324,0-0.631,0.186-0.631,0.534c0,0.947,1.876,0.655,1.876,1.925
			c0,0.534-0.429,1.1-1.391,1.1c-0.323,0-0.704-0.113-0.986-0.275l-0.089-0.93L24.355,35.228z"/>
		<path fill="#737777" d="M33.978,32.171h-0.202c-0.154-0.945-0.825-1.326-1.731-1.326c-0.93,0-2.281,0.622-2.281,2.563
			c0,1.634,1.166,2.806,2.41,2.806c0.8,0,1.464-0.549,1.626-1.399l0.186,0.048L33.8,36.044c-0.34,0.211-1.254,0.429-1.788,0.429
			c-1.892,0-3.089-1.221-3.089-3.041c0-1.658,1.48-2.847,3.064-2.847c0.655,0,1.286,0.211,1.908,0.429L33.978,32.171z"/>
		<path fill="#737777" d="M34.269,36.142h0.153c0.227,0,0.389,0,0.389-0.268V31.37c0-0.526-0.121-0.542-0.429-0.631V30.61
			c0.323-0.105,0.663-0.25,0.833-0.348c0.088-0.048,0.154-0.089,0.177-0.089c0.049,0,0.065,0.049,0.065,0.114v5.588
			c0,0.268,0.178,0.268,0.404,0.268h0.137v0.21c-0.274,0-0.558-0.016-0.848-0.016c-0.291,0-0.582,0.008-0.882,0.016V36.142
			L34.269,36.142z"/>
		<path fill="#737777" d="M39.462,35.907c0,0.146,0.088,0.154,0.226,0.154c0.097,0,0.218-0.008,0.324-0.008v0.17
			c-0.348,0.032-1.011,0.202-1.165,0.25l-0.04-0.024v-0.655c-0.485,0.396-0.857,0.679-1.432,0.679c-0.437,0-0.889-0.283-0.889-0.962
			V33.44c0-0.21-0.032-0.412-0.484-0.453v-0.154c0.291-0.008,0.937-0.056,1.043-0.056c0.09,0,0.09,0.056,0.09,0.234v2.086
			c0,0.243,0,0.938,0.703,0.938c0.275,0,0.639-0.21,0.978-0.493v-2.176c0-0.161-0.388-0.25-0.679-0.331v-0.146
			c0.727-0.049,1.181-0.113,1.261-0.113c0.065,0,0.065,0.056,0.065,0.146L39.462,35.907L39.462,35.907z"/>
		<path fill="#737777" d="M41.071,35.438c0,0.307,0.291,0.825,0.833,0.825c0.865,0,1.229-0.849,1.229-1.569
			c0-0.873-0.663-1.601-1.293-1.601c-0.3,0-0.55,0.194-0.769,0.38V35.438z M41.071,33.238c0.323-0.275,0.76-0.582,1.205-0.582
			c0.938,0,1.504,0.817,1.504,1.698c0,1.059-0.776,2.119-1.933,2.119c-0.598,0-0.913-0.194-1.124-0.283l-0.242,0.186l-0.169-0.089
			c0.071-0.477,0.113-0.946,0.113-1.44v-3.477c0-0.526-0.122-0.542-0.429-0.631V30.61c0.324-0.105,0.663-0.25,0.833-0.348
			c0.089-0.048,0.153-0.089,0.178-0.089c0.049,0,0.065,0.049,0.065,0.113L41.071,33.238L41.071,33.238z"/>
	</g>
</g>
</svg>
