<?xml version="1.0" encoding="utf-8"?>
<!-- Generator: Adobe Illustrator 17.0.0, SVG Export Plug-In . SVG Version: 6.00 Build 0)  -->
<!DOCTYPE svg PUBLIC "-//W3C//DTD SVG 1.1//EN" "http://www.w3.org/Graphics/SVG/1.1/DTD/svg11.dtd">
<svg version="1.1" id="Layer_1" xmlns="http://www.w3.org/2000/svg" xmlns:xlink="http://www.w3.org/1999/xlink" x="0px" y="0px"
	 width="50px" height="50px" viewBox="0 0 50 50" enable-background="new 0 0 50 50" xml:space="preserve">
<path fill-rule="evenodd" clip-rule="evenodd" fill="#737777" d="M12.107,17.095c4.539,0,8.344,3.141,9.362,7.368l-3.881,1.697
	l-0.001-0.008l-3.971,1.745L4.09,32.062c-1.019-1.528-1.613-3.363-1.613-5.337C2.477,21.407,6.788,17.095,12.107,17.095
	L12.107,17.095z M16.24,23.083l-9.62,4.145c-0.015-0.166-0.023-0.333-0.023-0.503c0-3.043,2.467-5.51,5.51-5.51
	C13.753,21.216,15.231,21.938,16.24,23.083L16.24,23.083z"/>
<path fill-rule="evenodd" clip-rule="evenodd" fill="#737777" d="M18.836,33.614c-3.448,3.273-8.009,3.594-12.017,1.16l2.265-3.443
	c2.281,1.363,4.572,1.142,6.873-0.665L18.836,33.614L18.836,33.614z"/>
<path fill-rule="evenodd" clip-rule="evenodd" fill="#737777" d="M22.757,31.23l-0.024-18.211h3.45v17.719
	c0,0.17,0.021,0.32,0.244,0.406l3.001,1.167l-1.352,3.516l-3.516-1.488C23.227,33.777,22.759,32.959,22.757,31.23L22.757,31.23z"/>
<path fill-rule="evenodd" clip-rule="evenodd" fill="#737777" d="M45.712,33.53c-1.702,1.595-3.99,2.571-6.506,2.571
	c-5.256,0-9.517-4.261-9.517-9.517c0-1.492,0.344-2.903,0.955-4.16l3.592,1.905c-0.312,0.687-0.487,1.451-0.487,2.256
	c0,3.014,2.443,5.457,5.457,5.457c1.469,0,2.802-0.58,3.783-1.524L45.712,33.53L45.712,33.53z"/>
<path fill-rule="evenodd" clip-rule="evenodd" fill="#737777" d="M39.121,16.895c5.256,0,9.517,4.261,9.517,9.517
	c0,1.447-0.323,2.818-0.901,4.046l-3.595-1.906c0.28-0.657,0.436-1.38,0.436-2.14c0-3.014-2.443-5.457-5.457-5.457
	c-1.419,0-2.712,0.542-3.683,1.43l-2.722-3.013C34.406,17.833,36.654,16.895,39.121,16.895L39.121,16.895z"/>
</svg>
